…
```r
deserts
```

```
## # A tibble: 34,786 x 13
##    record_id month   day  year plot_id species_id sex   hindfoot_length weight
##        <dbl> <dbl> <dbl> <dbl>   <dbl> <chr>      <chr>           <dbl>  <dbl>
##  1         1     7    16  1977       2 NL         M                  32     NA
##  2         2     7    16  1977       3 NL         M                  33     NA
##  3         3     7    16  1977       2 DM         F                  37     NA
##  4         4     7    16  1977       7 DM         M                  36     NA
##  5         5     7    16  1977       3 DM         M                  35     NA
##  6         6     7    16  1977       1 PF         M                  14     NA
##  7         7     7    16  1977       2 PE         F                  NA     NA
##  8         8     7    16  1977       1 DM         M                  37     NA
##  9         9     7    16  1977       1 DM         F                  34     NA
## 10        10     7    16  1977       6 PF         F                  20     NA
## # … with 34,776 more rows, and 4 more variables: genus <chr>, species <chr>,
## #   taxa <chr>, plot_type <chr>
```
…
```r
deserts %>% 
  group_by(species) %>% 
  summarize(count=n()) %>% 
  arrange(desc(count))
```

```
## `summarise()` ungrouping output (override with `.groups` argument)
```

```
## # A tibble: 40 x 2
##    species      count
##    <chr>        <int>
##  1 merriami     10596
##  2 penicillatus  3123
##  3 ordii         3027
##  4 baileyi       2891
##  5 megalotis     2609
##  6 spectabilis   2504
##  7 torridus      2249
##  8 flavus        1597
##  9 eremicus      1299
## 10 albigula      1252
## # … with 30 more rows
```
##### Merriami is represented the most in this data. Clarki, Scutalatus, Tereticaudus, Tigris, Uniparems, and Viridis is represented the least.

```r
deserts %>% 
  group_by(genus) %>% 
  summarize(count=n()) %>% 
  arrange(desc(count))
```

```
## `summarise()` ungrouping output (override with `.groups` argument)
```

```
## # A tibble: 26 x 2
##    genus            count
##    <chr>            <int>
##  1 Dipodomys        16167
##  2 Chaetodipus       6029
##  3 Onychomys         3267
##  4 Reithrodontomys   2694
##  5 Peromyscus        2234
##  6 Perognathus       1629
##  7 Neotoma           1252
##  8 Ammospermophilus   437
##  9 Amphispiza         303
## 10 Spermophilus       249
## # … with 16 more rows
```
…
```r
deserts %>% 
  group_by(species) %>% 
  filter(weight!="NA", weight!="Inf", weight!="-Inf") %>% 
  summarize(min_weight=min(weight, na.rm = TRUE),
            median_weight=median(weight, na.rm = TRUE),
            max_weight=max(weight, na.rm = TRUE))
```

```
## `summarise()` ungrouping output (override with `.groups` argument)
```

```
## # A tibble: 22 x 4
##    species     min_weight median_weight max_weight
##    <chr>            <dbl>         <dbl>      <dbl>
##  1 albigula            30         164          280
##  2 baileyi             12          31           55
##  3 eremicus             8          22           40
##  4 flavus               4           8           25
##  5 fulvescens           9          13           20
##  6 fulviventer         24          50          199
##  7 hispidus            16          64.5        140
##  8 intermedius         17          19.5         21
##  9 leucogaster         10          32           56
## 10 leucopus             8          20           27
## # … with 12 more rows
```
…
```r
deserts %>% 
  filter(weight!="NA") %>% 
  group_by(species) %>% 
  summarize(avg_weight=mean(weight, na.rm=T)) %>% 
  arrange(desc(avg_weight))
```

```
## `summarise()` ungrouping output (override with `.groups` argument)
```

```
## # A tibble: 22 x 2
##    species      avg_weight
##    <chr>             <dbl>
##  1 albigula          159. 
##  2 spectabilis       120. 
##  3 spilosoma          93.5
##  4 hispidus           65.6
##  5 fulviventer        58.9
##  6 ochrognathus       55.4
##  7 ordii              48.9
##  8 merriami           43.2
##  9 baileyi            31.7
## 10 leucogaster        31.6
## # … with 12 more rows
```
…
