…
```r
population
```

```
## # A tibble: 195 x 302
##    country `1800` `1801` `1802` `1803` `1804` `1805` `1806` `1807` `1808` `1809`
##    <chr>    <dbl>  <dbl>  <dbl>  <dbl>  <dbl>  <dbl>  <dbl>  <dbl>  <dbl>  <dbl>
##  1 Afghan… 3.28e6 3.28e6 3.28e6 3.28e6 3.28e6 3.28e6 3.28e6 3.28e6 3.28e6 3.28e6
##  2 Albania 4.00e5 4.02e5 4.04e5 4.05e5 4.07e5 4.09e5 4.11e5 4.13e5 4.14e5 4.16e5
##  3 Algeria 2.50e6 2.51e6 2.52e6 2.53e6 2.54e6 2.55e6 2.56e6 2.56e6 2.57e6 2.58e6
##  4 Andorra 2.65e3 2.65e3 2.65e3 2.65e3 2.65e3 2.65e3 2.65e3 2.65e3 2.65e3 2.65e3
##  5 Angola  1.57e6 1.57e6 1.57e6 1.57e6 1.57e6 1.57e6 1.57e6 1.57e6 1.57e6 1.57e6
##  6 Antigu… 3.70e4 3.70e4 3.70e4 3.70e4 3.70e4 3.70e4 3.70e4 3.70e4 3.70e4 3.70e4
##  7 Argent… 5.34e5 5.20e5 5.06e5 4.92e5 4.79e5 4.66e5 4.53e5 4.41e5 4.29e5 4.17e5
##  8 Armenia 4.13e5 4.13e5 4.13e5 4.13e5 4.13e5 4.13e5 4.13e5 4.13e5 4.13e5 4.13e5
##  9 Austra… 2.00e5 2.05e5 2.11e5 2.16e5 2.22e5 2.27e5 2.33e5 2.39e5 2.46e5 2.52e5
## 10 Austria 3.00e6 3.02e6 3.04e6 3.05e6 3.07e6 3.09e6 3.11e6 3.12e6 3.14e6 3.16e6
## # … with 185 more rows, and 291 more variables: `1810` <dbl>, `1811` <dbl>,
## #   `1812` <dbl>, `1813` <dbl>, `1814` <dbl>, `1815` <dbl>, `1816` <dbl>,
## #   `1817` <dbl>, `1818` <dbl>, `1819` <dbl>, `1820` <dbl>, `1821` <dbl>,
## #   `1822` <dbl>, `1823` <dbl>, `1824` <dbl>, `1825` <dbl>, `1826` <dbl>,
## #   `1827` <dbl>, `1828` <dbl>, `1829` <dbl>, `1830` <dbl>, `1831` <dbl>,
## #   `1832` <dbl>, `1833` <dbl>, `1834` <dbl>, `1835` <dbl>, `1836` <dbl>,
## #   `1837` <dbl>, `1838` <dbl>, `1839` <dbl>, `1840` <dbl>, `1841` <dbl>,
## #   `1842` <dbl>, `1843` <dbl>, `1844` <dbl>, `1845` <dbl>, `1846` <dbl>,
## #   `1847` <dbl>, `1848` <dbl>, `1849` <dbl>, `1850` <dbl>, `1851` <dbl>,
…
```r
income
```

```
## # A tibble: 193 x 242
##    country `1800` `1801` `1802` `1803` `1804` `1805` `1806` `1807` `1808` `1809`
##    <chr>    <dbl>  <dbl>  <dbl>  <dbl>  <dbl>  <dbl>  <dbl>  <dbl>  <dbl>  <dbl>
##  1 Afghan…    603    603    603    603    603    603    603    603    603    603
##  2 Albania    667    667    667    667    667    668    668    668    668    668
##  3 Algeria    715    716    717    718    719    720    721    722    723    724
##  4 Andorra   1200   1200   1200   1200   1210   1210   1210   1210   1220   1220
##  5 Angola     618    620    623    626    628    631    634    637    640    642
##  6 Antigu…    757    757    757    757    757    757    757    758    758    758
##  7 Argent…   1640   1640   1650   1650   1660   1660   1670   1680   1680   1690
##  8 Armenia    514    514    514    514    514    514    514    514    514    514
##  9 Austra…    817    822    826    831    836    841    845    850    855    860
## 10 Austria   1850   1850   1860   1870   1880   1880   1890   1900   1910   1920
## # … with 183 more rows, and 231 more variables: `1810` <dbl>, `1811` <dbl>,
## #   `1812` <dbl>, `1813` <dbl>, `1814` <dbl>, `1815` <dbl>, `1816` <dbl>,
## #   `1817` <dbl>, `1818` <dbl>, `1819` <dbl>, `1820` <dbl>, `1821` <dbl>,
## #   `1822` <dbl>, `1823` <dbl>, `1824` <dbl>, `1825` <dbl>, `1826` <dbl>,
## #   `1827` <dbl>, `1828` <dbl>, `1829` <dbl>, `1830` <dbl>, `1831` <dbl>,
## #   `1832` <dbl>, `1833` <dbl>, `1834` <dbl>, `1835` <dbl>, `1836` <dbl>,
## #   `1837` <dbl>, `1838` <dbl>, `1839` <dbl>, `1840` <dbl>, `1841` <dbl>,
## #   `1842` <dbl>, `1843` <dbl>, `1844` <dbl>, `1845` <dbl>, `1846` <dbl>,
## #   `1847` <dbl>, `1848` <dbl>, `1849` <dbl>, `1850` <dbl>, `1851` <dbl>,
…
```r
life_expectancy
```

```
## # A tibble: 187 x 302
##    country `1800` `1801` `1802` `1803` `1804` `1805` `1806` `1807` `1808` `1809`
##    <chr>    <dbl>  <dbl>  <dbl>  <dbl>  <dbl>  <dbl>  <dbl>  <dbl>  <dbl>  <dbl>
##  1 Afghan…   28.2   28.2   28.2   28.2   28.2   28.2   28.1   28.1   28.1   28.1
##  2 Albania   35.4   35.4   35.4   35.4   35.4   35.4   35.4   35.4   35.4   35.4
##  3 Algeria   28.8   28.8   28.8   28.8   28.8   28.8   28.8   28.8   28.8   28.8
##  4 Andorra   NA     NA     NA     NA     NA     NA     NA     NA     NA     NA  
##  5 Angola    27     27     27     27     27     27     27     27     27     27  
##  6 Antigu…   33.5   33.5   33.5   33.5   33.5   33.5   33.5   33.5   33.5   33.5
##  7 Argent…   33.2   33.2   33.2   33.2   33.2   33.2   33.2   33.2   33.2   33.2
##  8 Armenia   34     34     34     34     34     34     34     34     34     34  
##  9 Austra…   34     34     34     34     34     34     34     34     34     34  
## 10 Austria   34.4   34.4   34.4   34.4   34.4   34.4   34.4   34.4   34.4   34.4
## # … with 177 more rows, and 291 more variables: `1810` <dbl>, `1811` <dbl>,
## #   `1812` <dbl>, `1813` <dbl>, `1814` <dbl>, `1815` <dbl>, `1816` <dbl>,
## #   `1817` <dbl>, `1818` <dbl>, `1819` <dbl>, `1820` <dbl>, `1821` <dbl>,
## #   `1822` <dbl>, `1823` <dbl>, `1824` <dbl>, `1825` <dbl>, `1826` <dbl>,
## #   `1827` <dbl>, `1828` <dbl>, `1829` <dbl>, `1830` <dbl>, `1831` <dbl>,
## #   `1832` <dbl>, `1833` <dbl>, `1834` <dbl>, `1835` <dbl>, `1836` <dbl>,
## #   `1837` <dbl>, `1838` <dbl>, `1839` <dbl>, `1840` <dbl>, `1841` <dbl>,
## #   `1842` <dbl>, `1843` <dbl>, `1844` <dbl>, `1845` <dbl>, `1846` <dbl>,
## #   `1847` <dbl>, `1848` <dbl>, `1849` <dbl>, `1850` <dbl>, `1851` <dbl>,
…
```r
pop_tidy <- population %>% 
  pivot_longer(-country, #country does not pivot
               names_to = "year", 
               values_to = "population"
               )
pop_tidy
```

```
## # A tibble: 58,695 x 3
##    country     year  population
##    <chr>       <chr>      <dbl>
##  1 Afghanistan 1800     3280000
##  2 Afghanistan 1801     3280000
##  3 Afghanistan 1802     3280000
##  4 Afghanistan 1803     3280000
##  5 Afghanistan 1804     3280000
##  6 Afghanistan 1805     3280000
##  7 Afghanistan 1806     3280000
##  8 Afghanistan 1807     3280000
##  9 Afghanistan 1808     3280000
## 10 Afghanistan 1809     3280000
## # … with 58,685 more rows
```
…
```r
income_tidy <- income %>% 
  pivot_longer(-country, #country does not pivot
               names_to = "year", 
               values_to = "gdp_per_capita"
               )
income_tidy
```

```
## # A tibble: 46,513 x 3
##    country     year  gdp_per_capita
##    <chr>       <chr>          <dbl>
##  1 Afghanistan 1800             603
##  2 Afghanistan 1801             603
##  3 Afghanistan 1802             603
##  4 Afghanistan 1803             603
##  5 Afghanistan 1804             603
##  6 Afghanistan 1805             603
##  7 Afghanistan 1806             603
##  8 Afghanistan 1807             603
##  9 Afghanistan 1808             603
## 10 Afghanistan 1809             603
## # … with 46,503 more rows
```
…
```r
life_tidy <- life_expectancy %>% 
  pivot_longer(-country, #country does not pivot
               names_to = "year", 
               values_to = "life_expectancy"
               )
life_tidy
```

```
## # A tibble: 56,287 x 3
##    country     year  life_expectancy
##    <chr>       <chr>           <dbl>
##  1 Afghanistan 1800             28.2
##  2 Afghanistan 1801             28.2
##  3 Afghanistan 1802             28.2
##  4 Afghanistan 1803             28.2
##  5 Afghanistan 1804             28.2
##  6 Afghanistan 1805             28.2
##  7 Afghanistan 1806             28.1
##  8 Afghanistan 1807             28.1
##  9 Afghanistan 1808             28.1
## 10 Afghanistan 1809             28.1
## # … with 56,277 more rows
```
…
2. (1 point) How many different countries are represented in the data? Provide the total number and their names. Since each data set includes different numbers of countries, you will need to do this for each one.
##### For the population data:

```r
pop_tidy %>% 
  group_by(country) %>% 
  summarize(n_country=n_distinct(country))
```

```
## `summarise()` ungrouping output (override with `.groups` argument)
```

```
## # A tibble: 195 x 2
##    country             n_country
##    <chr>                   <int>
##  1 Afghanistan                 1
##  2 Albania                     1
##  3 Algeria                     1
##  4 Andorra                     1
##  5 Angola                      1
##  6 Antigua and Barbuda         1
##  7 Argentina                   1
##  8 Armenia                     1
##  9 Australia                   1
## 10 Austria                     1
## # … with 185 more rows
```
…
##### For the income data:

```r
income_tidy %>% 
  group_by(country) %>% 
  summarize(n_country=n_distinct(country))
```

```
## `summarise()` ungrouping output (override with `.groups` argument)
```

```
## # A tibble: 193 x 2
##    country             n_country
##    <chr>                   <int>
##  1 Afghanistan                 1
##  2 Albania                     1
##  3 Algeria                     1
##  4 Andorra                     1
##  5 Angola                      1
##  6 Antigua and Barbuda         1
##  7 Argentina                   1
##  8 Armenia                     1
##  9 Australia                   1
## 10 Austria                     1
## # … with 183 more rows
```
…
##### For the life expectancy data:

```r
life_tidy %>% 
  group_by(country) %>% 
  summarize(n_country=n_distinct(country))
```

```
## `summarise()` ungrouping output (override with `.groups` argument)
```

```
## # A tibble: 187 x 2
##    country             n_country
##    <chr>                   <int>
##  1 Afghanistan                 1
##  2 Albania                     1
##  3 Algeria                     1
##  4 Andorra                     1
##  5 Angola                      1
##  6 Antigua and Barbuda         1
##  7 Argentina                   1
##  8 Armenia                     1
##  9 Australia                   1
## 10 Austria                     1
## # … with 177 more rows
```
…
```
## `summarise()` ungrouping output (override with `.groups` argument)
```

```r
hundred_life
```

```
## # A tibble: 187 x 2
##    country             mean_life_expectancy
##    <chr>                              <dbl>
##  1 Afghanistan                         43.8
##  2 Albania                             61.4
##  3 Algeria                             56.3
##  4 Andorra                             79.8
##  5 Angola                              44.0
##  6 Antigua and Barbuda                 63.2
##  7 Argentina                           65.8
##  8 Armenia                             60.2
##  9 Australia                           72.7
## 10 Austria                             68.6
## # … with 177 more rows
```


Highest

```r
hundred_life %>% 
  arrange(desc(mean_life_expectancy))
```

```
## # A tibble: 187 x 2
##    country     mean_life_expectancy
##    <chr>                      <dbl>
##  1 Andorra                     79.8
##  2 Sweden                      73.5
##  3 Norway                      73.2
##  4 Netherlands                 73.0
##  5 Dominica                    73.0
##  6 Iceland                     72.9
##  7 Australia                   72.7
##  8 Switzerland                 72.7
##  9 Denmark                     71.9
## 10 Canada                      71.8
## # … with 177 more rows
```

```r
life_tidy %>% 
  filter(country=="Andorra") %>% 
  filter(year>=1920, year<=2020)
```

```
## # A tibble: 101 x 3
##    country year  life_expectancy
##    <chr>   <chr>           <dbl>
##  1 Andorra 1920               NA
##  2 Andorra 1921               NA
##  3 Andorra 1922               NA
##  4 Andorra 1923               NA
##  5 Andorra 1924               NA
##  6 Andorra 1925               NA
##  7 Andorra 1926               NA
##  8 Andorra 1927               NA
##  9 Andorra 1928               NA
## 10 Andorra 1929               NA
## # … with 91 more rows
```

```r
life_tidy %>% 
  filter(country=="Sweden") %>% 
  filter(year>=1920, year<=2020)
```

```
## # A tibble: 101 x 3
##    country year  life_expectancy
##    <chr>   <chr>           <dbl>
##  1 Sweden  1920             58.8
##  2 Sweden  1921             61  
##  3 Sweden  1922             61  
##  4 Sweden  1923             63  
##  5 Sweden  1924             62  
##  6 Sweden  1925             62.5
##  7 Sweden  1926             62.8
##  8 Sweden  1927             61.6
##  9 Sweden  1928             62.2
## 10 Sweden  1929             62.3
## # … with 91 more rows
```

##### Andorra has the highest average life expectancy from the years (although, this data does need to be taken with a grain of salt because Andorra has a lot of NAs in its data. The data starts in 1970 and ends in 2019.)
##### Sweden, on the other hand, has the highest life expectancy of the data that has no NAs in this time frame.

Lowest

```r
hundred_life %>% 
  arrange(mean_life_expectancy)
```

```
## # A tibble: 187 x 2
##    country                  mean_life_expectancy
##    <chr>                                   <dbl>
##  1 Central African Republic                 41.8
##  2 Mali                                     41.8
##  3 Ethiopia                                 42.6
##  4 Sierra Leone                             42.6
##  5 Guinea-Bissau                            42.6
##  6 Burundi                                  42.8
##  7 Malawi                                   42.8
##  8 Uganda                                   43.3
##  9 Eritrea                                  43.4
## 10 Yemen                                    43.6
## # … with 177 more rows
```

```r
life_tidy %>% 
  filter(country=="Andorra") %>% 
  filter(year>=1920, year<=2020)
```

```
## # A tibble: 101 x 3
##    country year  life_expectancy
##    <chr>   <chr>           <dbl>
##  1 Andorra 1920               NA
##  2 Andorra 1921               NA
##  3 Andorra 1922               NA
##  4 Andorra 1923               NA
##  5 Andorra 1924               NA
##  6 Andorra 1925               NA
##  7 Andorra 1926               NA
##  8 Andorra 1927               NA
##  9 Andorra 1928               NA
## 10 Andorra 1929               NA
## # … with 91 more rows
```

```r
life_tidy %>% 
  filter(country=="Mali") %>% 
  filter(year>=1920, year<=2020)
```

```
## # A tibble: 101 x 3
##    country year  life_expectancy
##    <chr>   <chr>           <dbl>
##  1 Mali    1920             29.4
##  2 Mali    1921             29.5
##  3 Mali    1922             29.5
##  4 Mali    1923             29.6
##  5 Mali    1924             29.6
##  6 Mali    1925             29.7
##  7 Mali    1926             29.8
##  8 Mali    1927             29.8
##  9 Mali    1928             29.9
## 10 Mali    1929             29.9
## # … with 91 more rows
```
…
```
## `summarise()` ungrouping output (override with `.groups` argument)
```

```r
life_exp_improve
```

```
## # A tibble: 187 x 2
##    country             improvement_years
##    <chr>                           <dbl>
##  1 Afghanistan                      33.8
##  2 Albania                          43.2
##  3 Algeria                          48.7
##  4 Andorra                          NA  
##  5 Angola                           35. 
##  6 Antigua and Barbuda              43.5
##  7 Argentina                        27.2
##  8 Armenia                          49  
##  9 Australia                        22.2
## 10 Austria                          31.8
## # … with 177 more rows
```


```r
life_exp_improve %>% 
  arrange(desc(improvement_years))
```

```
## # A tibble: 187 x 2
##    country         improvement_years
##    <chr>                       <dbl>
##  1 Kuwait                       56.8
##  2 Kyrgyz Republic              56.5
##  3 Turkmenistan                 55.3
##  4 South Korea                  55  
##  5 Tajikistan                   54.3
##  6 Nicaragua                    54.2
##  7 Kazakhstan                   53.8
##  8 Russia                       52.2
##  9 Israel                       51.4
## 10 Iran                         51.2
## # … with 177 more rows
```
…
```
## `summarise()` ungrouping output (override with `.groups` argument)
```

```r
pop_growth_hundred
```

```
## # A tibble: 195 x 2
##    country       population_growth
##    <chr>                     <dbl>
##  1 India                1063000000
##  2 China                 968000000
##  3 Indonesia             226700000
##  4 United States         220000000
##  5 Pakistan              199300000
##  6 Brazil                185400000
##  7 Nigeria               182700000
##  8 Bangladesh            137700000
##  9 Mexico                114200000
## 10 Philippines           100600000
## # … with 185 more rows
```
…
```
## `summarise()` ungrouping output (override with `.groups` argument)
```

```r
gdp_increase_hundred
```

```
## # A tibble: 193 x 2
##    country              gdp_growth
##    <chr>                     <dbl>
##  1 Qatar                    113700
##  2 Luxembourg                89370
##  3 Singapore                 88060
##  4 Brunei                    72970
##  5 Ireland                   68930
##  6 United Arab Emirates      63210
##  7 Kuwait                    61950
##  8 Norway                    58540
##  9 Monaco                    55370
## 10 San Marino                54620
## # … with 183 more rows
```
…
```r
income_100 <- income_tidy %>% 
  filter(year<=2020,year>=1920)
```


```r
gapminder_join <- inner_join(life_expectancy_100, population_100, by= c("country", "year"))
gapminder_join <- inner_join(gapminder_join, income_100, by= c("country", "year"))
gapminder_join
```

```
## # A tibble: 18,887 x 5
##    country      year life_expectancy population gdp_per_capita
##    <chr>       <dbl>           <dbl>      <dbl>          <dbl>
##  1 Afghanistan  1920            30.6   10600000           1490
##  2 Afghanistan  1921            30.7   10500000           1520
##  3 Afghanistan  1922            30.8   10300000           1550
##  4 Afghanistan  1923            30.8    9710000           1570
##  5 Afghanistan  1924            30.9    9200000           1600
##  6 Afghanistan  1925            31      8720000           1630
##  7 Afghanistan  1926            31      8260000           1650
##  8 Afghanistan  1927            31.1    7830000           1680
##  9 Afghanistan  1928            31.1    7420000           1710
## 10 Afghanistan  1929            31.2    7100000           1740
## # … with 18,877 more rows
```

10. (4 points) Use the joined data to perform an analysis of your choice. The analysis should include a comparison between two or more of the variables `life_expectancy`, `population`, or `income.`
##### As the life expectancy of the current 5 most populous nations has gotten bigger, has the population also grown?
###### First, I'm going to find the current 5 most populous countries.

```r
gapminder_join %>% 
  filter(year==2020) %>% 
  arrange(desc(population))
```

```
## # A tibble: 187 x 5
##    country        year life_expectancy population gdp_per_capita
##    <chr>         <dbl>           <dbl>      <dbl>          <dbl>
##  1 China          2020            77.7 1440000000          18100
##  2 India          2020            69.7 1380000000           7630
##  3 United States  2020            78.6  331000000          57500
##  4 Indonesia      2020            72.1  274000000          12500
##  5 Pakistan       2020            67.3  221000000           5020
##  6 Brazil         2020            76.1  213000000          14500
##  7 Nigeria        2020            65.6  206000000           5300
##  8 Bangladesh     2020            73.9  165000000           4400
##  9 Russia         2020            72.7  146000000          26200
## 10 Mexico         2020            75.7  129000000          18100
## # … with 177 more rows
```
…
