…
**11. (4 points) One of the conclusions in the study is that the relative abundance of animals drops off the closer you get to a village. Let's try to reconstruct this (without the statistics). How does the relative abundance (RA) of apes, birds, elephants, monkeys, rodents, and ungulates compare between sites that are less than 5km from a village to sites that are greater than 20km from a village? The variable `Distance` measures the distance of the transect from the nearest village. Hint: try using the `across` operator.**  

```r
relative_abundance <- vertabrate %>% 
  select(starts_with("ra"))
relative_abundance
```

```
## # A tibble: 24 x 6
##    ra_apes ra_birds ra_elephant ra_monkeys ra_rodent ra_ungulate
##      <dbl>    <dbl>       <dbl>      <dbl>     <dbl>       <dbl>
##  1    1.87     52.7        0         38.6       4.22        2.66
##  2    0        52.2        0.86      28.5       6.04       12.4 
##  3    4.49     37.4        1.33      41.8       1.06       13.9 
##  4   12.9      59.3        0.56      19.8       3.66        3.71
##  5    0        52.6        1         41.3       2.52        2.53
##  6    2.48     38.6        0         43.3       1.83       13.8 
##  7    3.78     42.7        1.11      46.2       3.1         3.1 
##  8    6.17     33.8        0.43      49.5       1.26        8.76
##  9    0        73.1        2.2       20.0       4.37        0.34
## 10    0        85.0        0          5.84      6.31        2.36
## # … with 14 more rows
```
…
