…
2. Which cities in California have the highest number of colleges?

```r
colleges_per_city <- colleges %>% 
  group_by(CITY) %>% 
  summarise(number_colleges = n_distinct(INSTNM)) %>% 
  arrange(desc(number_colleges))
colleges_per_city
```

```
## # A tibble: 161 x 2
##    CITY          number_colleges
##    <chr>                   <int>
##  1 Los Angeles                24
##  2 San Diego                  18
##  3 San Francisco              15
##  4 Sacramento                 10
##  5 Berkeley                    9
##  6 Oakland                     9
##  7 Claremont                   7
##  8 Pasadena                    6
##  9 Fresno                      5
## 10 Irvine                      5
## # ... with 151 more rows
```
…
4. The column `COSTT4_A` is the annual cost of each institution. Which city has the highest average cost? Where is it located?

```r
cost <- colleges %>% 
  select(INSTNM, CITY, COSTT4_A) %>% 
  arrange(desc(COSTT4_A))
cost
```

```
## # A tibble: 341 x 3
##    INSTNM                                        CITY          COSTT4_A
##    <chr>                                         <chr>            <dbl>
##  1 Harvey Mudd College                           Claremont        69355
##  2 Southern California Institute of Architecture Los Angeles      67225
##  3 University of Southern California             Los Angeles      67064
##  4 Occidental College                            Los Angeles      67046
##  5 Claremont McKenna College                     Claremont        66325
##  6 Pepperdine University                         Malibu           66152
##  7 Scripps College                               Claremont        66060
##  8 Pitzer College                                Claremont        65880
##  9 San Francisco Art Institute                   San Francisco    65453
## 10 Pomona College                                Claremont        64870
## # ... with 331 more rows
```
##### Harvey Mudd College in Claremont, CA has the highest average cost of $69,355.

```r
cost %>% 
  group_by(CITY) %>% 
  summarize(avg_cost=mean(COSTT4_A, na.rm=T)) %>% 
  arrange(desc(avg_cost))
```

```
## # A tibble: 161 x 2
##    CITY                avg_cost
##    <chr>                  <dbl>
##  1 Claremont              66498
##  2 Malibu                 66152
##  3 Valencia               64686
##  4 Orange                 64501
##  5 Redlands               61542
##  6 Moraga                 61095
##  7 Atherton               56035
##  8 Thousand Oaks          54373
##  9 Rancho Palos Verdes    50758
## 10 La Verne               50603
## # ... with 151 more rows
```
…
