…
```r
fisheries
```

```
## # A tibble: 17,692 x 71
##    Country `Common name` `ISSCAAP group#` `ISSCAAP taxono… `ASFIS species#`
##    <chr>   <chr>                    <dbl> <chr>            <chr>           
##  1 Albania Angelsharks,…               38 Sharks, rays, c… 10903XXXXX      
##  2 Albania Atlantic bon…               36 Tunas, bonitos,… 1750100101      
##  3 Albania Barracudas n…               37 Miscellaneous p… 17710001XX      
##  4 Albania Blue and red…               45 Shrimps, prawns  2280203101      
##  5 Albania Blue whiting…               32 Cods, hakes, ha… 1480403301      
##  6 Albania Bluefish                    37 Miscellaneous p… 1702021301      
##  7 Albania Bogue                       33 Miscellaneous c… 1703926101      
##  8 Albania Caramote pra…               45 Shrimps, prawns  2280100117      
##  9 Albania Catsharks, n…               38 Sharks, rays, c… 10801003XX      
## 10 Albania Common cuttl…               57 Squids, cuttlef… 3210200202      
## # … with 17,682 more rows, and 66 more variables: `ASFIS species name` <chr>,
## #   `FAO major fishing area` <dbl>, Measure <chr>, `1950` <chr>, `1951` <chr>,
## #   `1952` <chr>, `1953` <chr>, `1954` <chr>, `1955` <chr>, `1956` <chr>,
## #   `1957` <chr>, `1958` <chr>, `1959` <chr>, `1960` <chr>, `1961` <chr>,
## #   `1962` <chr>, `1963` <chr>, `1964` <chr>, `1965` <chr>, `1966` <chr>,
## #   `1967` <chr>, `1968` <chr>, `1969` <chr>, `1970` <chr>, `1971` <chr>,
## #   `1972` <chr>, `1973` <chr>, `1974` <chr>, `1975` <chr>, `1976` <chr>,
## #   `1977` <chr>, `1978` <chr>, `1979` <chr>, `1980` <chr>, `1981` <chr>,
## #   `1982` <chr>, `1983` <chr>, `1984` <chr>, `1985` <chr>, `1986` <chr>,
…
4. Refocus the data only to include only: country, isscaap_taxonomic_group, asfis_species_name, asfis_species_number, year, catch.

```r
fisheries_tidy %>% 
  select(country, isscaap_taxonomic_group, asfis_species_name, asfis_species_number, year, catch)
```

```
## # A tibble: 376,771 x 6
##    country isscaap_taxonomic_g… asfis_species_na… asfis_species_num…  year catch
##    <fct>   <chr>                <chr>             <fct>              <dbl> <dbl>
##  1 Albania Sharks, rays, chima… Squatinidae       10903XXXXX          1995    NA
##  2 Albania Sharks, rays, chima… Squatinidae       10903XXXXX          1996    53
##  3 Albania Sharks, rays, chima… Squatinidae       10903XXXXX          1997    20
##  4 Albania Sharks, rays, chima… Squatinidae       10903XXXXX          1998    31
##  5 Albania Sharks, rays, chima… Squatinidae       10903XXXXX          1999    30
##  6 Albania Sharks, rays, chima… Squatinidae       10903XXXXX          2000    30
##  7 Albania Sharks, rays, chima… Squatinidae       10903XXXXX          2001    16
##  8 Albania Sharks, rays, chima… Squatinidae       10903XXXXX          2002    79
##  9 Albania Sharks, rays, chima… Squatinidae       10903XXXXX          2003     1
## 10 Albania Sharks, rays, chima… Squatinidae       10903XXXXX          2004     4
## # … with 376,761 more rows
```
…
## Warning in max(catch, na.rm = T): no non-missing arguments to max; returning -
## Inf

## Warning in max(catch, na.rm = T): no non-missing arguments to max; returning -
## Inf
```

```
## `summarise()` ungrouping output (override with `.groups` argument)
```

```
## # A tibble: 193 x 2
##    country                  largest_fish
##    <fct>                           <dbl>
##  1 China                            9068
##  2 Peru                             5717
##  3 Russian Federation               5065
##  4 Viet Nam                         4945
##  5 Chile                            4299
##  6 United States of America         2438
##  7 Philippines                       999
##  8 Japan                             988
##  9 Bangladesh                        977
## 10 Senegal                           970
## # … with 183 more rows
```
…
```r
fisheries_tidy %>% 
  filter(year>=1990,year<=2000) %>%
  filter(asfis_species_name=="Sardina pilchardus") %>% 
  group_by(country) %>% 
  summarize(sardine_catch=sum(catch, na.rm=T)) %>% 
  arrange(desc(sardine_catch))
```

```
## `summarise()` ungrouping output (override with `.groups` argument)
```

```
## # A tibble: 37 x 2
##    country               sardine_catch
##    <fct>                         <dbl>
##  1 Morocco                        7470
##  2 Spain                          3507
##  3 Russian Federation             1639
##  4 Ukraine                        1030
##  5 France                          966
##  6 Portugal                        818
##  7 Greece                          528
##  8 Italy                           507
##  9 Serbia and Montenegro           478
## 10 Denmark                         477
## # … with 27 more rows
```
…
```r
fisheries_tidy %>% 
  filter(year>=2008,year<=2012) %>%
  group_by(asfis_species_name) %>% 
  summarize(species_sum=sum(catch, na.rm=T)) %>% 
  arrange(desc(species_sum))
```

```
## `summarise()` ungrouping output (override with `.groups` argument)
```

```
## # A tibble: 1,472 x 2
##    asfis_species_name    species_sum
##    <chr>                       <dbl>
##  1 Osteichthyes               107808
##  2 Theragra chalcogramma       41075
##  3 Engraulis ringens           35523
##  4 Katsuwonus pelamis          32153
##  5 Trichiurus lepturus         30400
##  6 Clupea harengus             28527
##  7 Thunnus albacares           20119
##  8 Scomber japonicus           14723
##  9 Gadus morhua                13253
## 10 Thunnus alalunga            12019
## # … with 1,462 more rows
```
…
```r
fisheries_tidy %>% 
  group_by(year) %>% 
  summarize(catch_totals=sum(catch, na.rm=T)) %>% 
  arrange(desc(catch_totals))
```

```
## `summarise()` ungrouping output (override with `.groups` argument)
```

```
## # A tibble: 63 x 2
##     year catch_totals
##    <dbl>        <dbl>
##  1  2007       268130
##  2  2006       257669
##  3  2001       257320
##  4  2002       255807
##  5  2012       255406
##  6  2008       255013
##  7  2004       254115
##  8  2005       251877
##  9  2009       251181
## 10  2010       244839
## # … with 53 more rows
```
…
