…
## Practice
1. Which taxonomic orders have species that belong to more than one class of `vore`?

```r
msleep %>% 
  filter(!is.na(vore)) 
```

```
## # A tibble: 76 x 11
##    name  genus vore  order conservation sleep_total sleep_rem sleep_cycle awake
##    <chr> <chr> <chr> <chr> <chr>              <dbl>     <dbl>       <dbl> <dbl>
##  1 Chee… Acin… carni Carn… lc                  12.1      NA        NA      11.9
##  2 Owl … Aotus omni  Prim… <NA>                17         1.8      NA       7  
##  3 Moun… Aplo… herbi Rode… nt                  14.4       2.4      NA       9.6
##  4 Grea… Blar… omni  Sori… lc                  14.9       2.3       0.133   9.1
##  5 Cow   Bos   herbi Arti… domesticated         4         0.7       0.667  20  
##  6 Thre… Brad… herbi Pilo… <NA>                14.4       2.2       0.767   9.6
##  7 Nort… Call… carni Carn… vu                   8.7       1.4       0.383  15.3
##  8 Dog   Canis carni Carn… domesticated        10.1       2.9       0.333  13.9
##  9 Roe … Capr… herbi Arti… lc                   3        NA        NA      21  
## 10 Goat  Capri herbi Arti… lc                   5.3       0.6      NA      18.7
## # … with 66 more rows, and 2 more variables: brainwt <dbl>, bodywt <dbl>
```
…
