…
**4. How many total NA's are in each data set? Do these values make sense? Are NA's represented by values?**   
### NAs were originally represented with numeric values, but I changed that in one of my initial steps.

```r
naniar::miss_var_summary(amniota_tidy)
```

```
## # A tibble: 36 x 3
##    variable                       n_miss pct_miss
##    <chr>                           <int>    <dbl>
##  1 subspecies                      21322    100  
##  2 female_body_mass_at_maturity_g  21318    100. 
##  3 female_svl_at_maturity_cm       21120     99.1
##  4 fledging_mass_g                 21111     99.0
##  5 male_svl_cm                     21040     98.7
##  6 no_sex_maturity_d               20860     97.8
##  7 egg_width_mm                    20727     97.2
##  8 egg_length_mm                   20702     97.1
##  9 weaning_weight_g                20258     95.0
## 10 female_svl_cm                   20242     94.9
## # … with 26 more rows
```
…
```r
naniar::miss_var_summary(amphibio)
```

```
## # A tibble: 38 x 3
##    variable n_miss pct_miss
##    <chr>     <int>    <dbl>
##  1 OBS        6776    100  
##  2 Fruits     6774    100. 
##  3 Flowers    6772     99.9
##  4 Seeds      6772     99.9
##  5 Leaves     6752     99.6
##  6 Dry_cold   6735     99.4
##  7 Vert       6657     98.2
##  8 Wet_cold   6625     97.8
##  9 Crepu      6608     97.5
## 10 Dry_warm   6572     97.0
## # … with 28 more rows
```
…
**6. Use the package `naniar` to produce a summary, including percentages, of missing data in each column for the `amniota` data.**  

```r
naniar::miss_var_summary(amniota_tidy)
```

```
## # A tibble: 36 x 3
##    variable                       n_miss pct_miss
##    <chr>                           <int>    <dbl>
##  1 subspecies                      21322    100  
##  2 female_body_mass_at_maturity_g  21318    100. 
##  3 female_svl_at_maturity_cm       21120     99.1
##  4 fledging_mass_g                 21111     99.0
##  5 male_svl_cm                     21040     98.7
##  6 no_sex_maturity_d               20860     97.8
##  7 egg_width_mm                    20727     97.2
##  8 egg_length_mm                   20702     97.1
##  9 weaning_weight_g                20258     95.0
## 10 female_svl_cm                   20242     94.9
## # … with 26 more rows
```

**7. Use the package `naniar` to produce a summary, including percentages, of missing data in each column for the `amphibio` data.**

```r
naniar::miss_var_summary(amphibio)
```

```
## # A tibble: 38 x 3
##    variable n_miss pct_miss
##    <chr>     <int>    <dbl>
##  1 OBS        6776    100  
##  2 Fruits     6774    100. 
##  3 Flowers    6772     99.9
##  4 Seeds      6772     99.9
##  5 Leaves     6752     99.6
##  6 Dry_cold   6735     99.4
##  7 Vert       6657     98.2
##  8 Wet_cold   6625     97.8
##  9 Crepu      6608     97.5
## 10 Dry_warm   6572     97.0
## # … with 28 more rows
```
…
```r
naniar::miss_var_summary(amniota_na)
```

```
## # A tibble: 36 x 3
##    variable                       n_miss pct_miss
##    <chr>                           <int>    <dbl>
##  1 subspecies                      21322     100 
##  2 gestation_d                     21322     100 
##  3 weaning_d                       21322     100 
##  4 weaning_weight_g                21322     100 
##  5 male_svl_cm                     21322     100 
##  6 female_svl_cm                   21322     100 
##  7 female_svl_at_maturity_cm       21322     100 
##  8 female_body_mass_at_maturity_g  21322     100 
##  9 no_sex_svl_cm                   21322     100 
## 10 birth_or_hatching_svl_cm        21321     100.
## # … with 26 more rows
```
…
